VERSION		EQU	1
REVISION	EQU	13

DATE	MACRO
		dc.b '19.3.2023'
		ENDM

VERS	MACRO
		dc.b 'Codecraft 1.13'
		ENDM

VSTRING	MACRO
		dc.b 'Codecraft 1.13 (19.3.2023)',13,10,0
		ENDM

VERSTAG	MACRO
		dc.b 0,'$VER: Codecraft 1.13 (19.3.2023)',0
		ENDM
